{
  "summary": "Tested all 6 reported bug fixes. Backend: 9/10 tests passed (90%). Frontend: All features verified working correctly. All reported issues have been fixed.",
  "backend_issues": {
    "critical": [],
    "minor": [
      {
        "endpoint": "/api/staff/login",
        "issue": "Rate limiting (429) triggered during testing - not a bug, security feature working correctly",
        "priority": "LOW"
      }
    ]
  },
  "frontend_issues": {
    "ui_bugs": [],
    "integration_issues": [],
    "design_issues": []
  },
  "test_report_links": [
    "/app/backend/tests/test_iter57_features.py",
    "/app/test_reports/pytest/pytest_iter57.xml"
  ],
  "action_items": [],
  "critical_code_review_comments": [
    "Lead Management API correctly returns paginated leads (50 per page) with pagination info",
    "HR Management API returns employees list with 24 total employees (5 active)",
    "HR Dashboard API returns active_employees count correctly",
    "Staff Login 2FA returns require_otp:true with mobile_last4 as expected",
    "Business hours correctly shows '10:00 AM - 7:00 PM Monday-Saturday' and 'Sunday: Closed'",
    "Gallery CTA correctly shows 'Contact Us' instead of 'Explore Products'"
  ],
  "updated_files": [
    "/app/backend/tests/test_iter57_features.py"
  ],
  "success_rate": {
    "backend": "90% (9/10 tests passed - 1 failed due to rate limiting)",
    "frontend": "100% (All UI elements verified)"
  },
  "test_credentials": {
    "staff_id": "ASR1024",
    "staff_password": "test123",
    "staff_mobile_last4": "8877"
  },
  "seed_data_creation": "None",
  "retest_needed": false,
  "should_main_agent_self_test": false,
  "context_for_next_testing_agent": "All 6 reported bug fixes verified working. Staff 2FA login flow working with ASR1024/test123. HR has 5 active employees. Lead pagination working with 69 total leads.",
  "features_tested": {
    "lead_management_pagination": {
      "endpoint": "GET /api/crm/leads?page=1&limit=50",
      "status": "PASS",
      "details": "Returns 50 leads per page with pagination info (total: 69 leads, 2 pages)"
    },
    "hr_employees_api": {
      "endpoint": "GET /api/hr/employees",
      "status": "PASS",
      "details": "Returns 24 employees with employee_id, name, is_active fields"
    },
    "hr_dashboard_api": {
      "endpoint": "GET /api/hr/dashboard",
      "status": "PASS",
      "details": "Returns active_employees: 5, total_employees: 24"
    },
    "staff_login_2fa": {
      "endpoint": "POST /api/staff/login",
      "status": "PASS",
      "details": "Returns require_otp:true, mobile_last4:8877 for ASR1024"
    },
    "business_hours_contact_page": {
      "page": "/contact",
      "status": "PASS",
      "details": "Shows 'Monday - Saturday: 10:00 AM - 7:00 PM' and 'Sunday: Closed'"
    },
    "gallery_cta_button": {
      "page": "/gallery",
      "status": "PASS",
      "details": "'Contact Us' button present, 'Explore Products' removed"
    }
  },
  "api_verification": {
    "crm_leads": {
      "request": "GET /api/crm/leads?page=1&limit=50",
      "response": {
        "leads_count": 50,
        "pagination": {
          "total_count": 69,
          "current_page": 1,
          "total_pages": 2,
          "per_page": 50,
          "has_next": true,
          "has_prev": false
        }
      }
    },
    "hr_employees": {
      "request": "GET /api/hr/employees",
      "response": {
        "total": 24,
        "employees_sample": ["ASR1024 - Test Staff Login", "ASR1023 - TEST_Staff", "ASR1002 - New Staff Member"]
      }
    },
    "hr_dashboard": {
      "request": "GET /api/hr/dashboard",
      "response": {
        "total_employees": 24,
        "active_employees": 5,
        "on_probation": 0,
        "departments": {"sales": 12, "technical": 4, "admin": 4, "marketing": 2, "support": 2}
      }
    },
    "staff_login": {
      "request": "POST /api/staff/login with {staff_id: ASR1024, password: test123}",
      "response": {
        "success": true,
        "require_otp": true,
        "phone": "9999888877",
        "mobile_last4": "8877",
        "message": "Password verified. OTP will be sent to mobile ending in ****8877"
      }
    }
  },
  "rca_of_issue": "All reported issues have been fixed by main agent. No bugs found during testing."
}
