{
  "summary": "Tested Admin 2FA Login Flow and Lead Management Pagination. Backend tests: 9/10 passed (90%). All critical features working correctly.",
  "backend_issues": {
    "critical": [],
    "minor": [
      {
        "endpoint": "/api/health",
        "issue": "Health endpoint returns 404 - not critical, API root returns status correctly",
        "priority": "LOW"
      }
    ]
  },
  "frontend_issues": {
    "ui_bugs": [],
    "integration_issues": [],
    "design_issues": []
  },
  "test_report_links": [
    "/app/backend/tests/test_admin_2fa_iter56.py",
    "/app/test_reports/pytest/pytest_iter56.xml"
  ],
  "action_items": [],
  "critical_code_review_comments": [
    "Admin login correctly restricts to asrenterprisespatna@gmail.com only",
    "2FA flow returns require_otp:true with mobile_last4:6889 as expected",
    "Wrong emails are properly rejected with 401 status",
    "Lead Management pagination working with 50 per page limit",
    "Backend returns proper pagination info (current_page, total_pages, has_next, has_prev)"
  ],
  "updated_files": [
    "/app/backend/tests/test_admin_2fa_iter56.py"
  ],
  "success_rate": {
    "backend": "90% (9/10 tests passed)",
    "frontend": "100% (All UI elements verified)"
  },
  "test_credentials": {
    "admin_email": "asrenterprisespatna@gmail.com",
    "admin_password": "admin@asr123",
    "admin_mobile_last4": "6889"
  },
  "seed_data_creation": "None",
  "retest_needed": false,
  "should_main_agent_self_test": false,
  "context_for_next_testing_agent": "Admin 2FA login flow is working. Backend correctly restricts login to asrenterprisespatna@gmail.com only. Lead Management pagination is working with 50 leads per page (69 total leads across 2 pages).",
  "features_tested": {
    "admin_login_2fa": {
      "correct_email_correct_password": "PASS - Returns require_otp:true, role:admin, mobile_last4:6889",
      "wrong_email_rejected": "PASS - Returns 401 with error message",
      "correct_email_wrong_password": "PASS - Returns 401",
      "random_email_rejected": "PASS - Returns 401",
      "step_indicator_visible": "PASS - Shows '1 Email → 2 OTP' step indicator"
    },
    "lead_management_pagination": {
      "pagination_endpoint": "PASS - Returns 50 leads per page with pagination info",
      "page_2_works": "PASS - Returns 19 leads on page 2 (69 total - 50 = 19)",
      "search_filter": "PASS - Search endpoint works",
      "stage_filter": "PASS - Stage filter endpoint works",
      "frontend_pagination_ui": "PASS - Pagination controls implemented (Prev, Next, page numbers)"
    }
  },
  "api_verification": {
    "admin_login_password": {
      "endpoint": "POST /api/admin/login-password",
      "correct_credentials": {
        "request": {"user_id": "asrenterprisespatna@gmail.com", "password": "admin@asr123"},
        "response": {"success": true, "require_otp": true, "role": "admin", "email": "asrenterprisespatna@gmail.com", "mobile_last4": "6889"}
      },
      "wrong_email": {
        "request": {"user_id": "wrongemail@gmail.com", "password": "admin@asr123"},
        "response": "401 - Invalid email or password. Only registered admin/staff can login."
      }
    },
    "leads_pagination": {
      "endpoint": "GET /api/crm/leads?page=1&limit=50",
      "response": {
        "leads_count": 50,
        "pagination": {
          "current_page": 1,
          "total_pages": 2,
          "total_count": 69,
          "per_page": 50,
          "has_next": true,
          "has_prev": false
        }
      }
    }
  },
  "rca_of_issue": "No issues found. All reported features are working as expected."
}
